{
"type": "FeatureCollection",
"crs": { "type": "name", "properties": { "name": "urn:ogc:def:crs:OGC:1.3:CRS84" } },
"features": [
{ "type": "Feature",
"geometry": { "type": "LineString", "coordinates": [
[ 6.71457, 51.33546 ],
[ 6.71453, 51.3355 ],
[ 6.71485, 51.33608 ],
[ 6.71484, 51.33624 ],
[ 6.71469, 51.33638 ],
[ 6.71409, 51.33667 ],
[ 6.71364, 51.33681 ],
[ 6.71358, 51.33703 ],
[ 6.70604, 51.33938 ],
[ 6.70498, 51.33975 ],
[ 6.70423, 51.34018 ],
[ 6.6988, 51.34364 ],
[ 6.69883, 51.34362 ],
[ 6.69644, 51.34258 ],
[ 6.69547, 51.34227 ],
[ 6.69529, 51.34229 ],
[ 6.69473, 51.34256 ],
[ 6.69318, 51.34399 ],
[ 6.68637, 51.35127 ],
[ 6.68508, 51.35301 ],
[ 6.68499, 51.35305 ],
[ 6.68171, 51.35249 ],
[ 6.68128, 51.35238 ],
[ 6.68104, 51.35239 ],
[ 6.68055, 51.35351 ],
[ 6.68049, 51.35398 ],
[ 6.68052, 51.35453 ],
[ 6.68049, 51.35449 ],
[ 6.68029, 51.35447 ],
[ 6.67003, 51.35391 ],
[ 6.66989, 51.35527 ],
[ 6.66992, 51.35509 ],
[ 6.66608, 51.35393 ],
[ 6.66327, 51.35237 ],
[ 6.65559, 51.34781 ],
[ 6.65479, 51.34753 ],
[ 6.65286, 51.34712 ],
[ 6.65005, 51.34705 ],
[ 6.64938, 51.34748 ],
[ 6.64964, 51.35133 ],
[ 6.65003, 51.35133 ],
[ 6.649, 51.35539 ],
[ 6.65112, 51.35567 ],
[ 6.65162, 51.35567 ],
[ 6.65069, 51.35675 ],
[ 6.65033, 51.35884 ],
[ 6.65117, 51.3595 ],
[ 6.65228, 51.36143 ],
[ 6.65597, 51.36444 ],
[ 6.6585, 51.36604 ],
[ 6.66256, 51.36789 ],
[ 6.6631, 51.36851 ],
[ 6.66378, 51.36832 ],
[ 6.66645, 51.36917 ],
[ 6.66848, 51.3704 ],
[ 6.669, 51.37055 ],
[ 6.66977, 51.37094 ],
[ 6.67612, 51.37267 ],
[ 6.68133, 51.37357 ],
[ 6.68745, 51.37395 ],
[ 6.69142, 51.3741 ],
[ 6.69305, 51.37458 ],
[ 6.69616, 51.37425 ],
[ 6.70097, 51.37449 ],
[ 6.71127, 51.37648 ],
[ 6.71693, 51.37862 ],
[ 6.71622, 51.37987 ],
[ 6.71908, 51.38115 ],
[ 6.7256, 51.38483 ],
[ 6.73221, 51.38889 ],
[ 6.73097, 51.38945 ],
[ 6.72783, 51.38784 ],
[ 6.72723, 51.38814 ],
[ 6.7276, 51.38828 ],
[ 6.72552, 51.38906 ],
[ 6.72764, 51.39143 ],
[ 6.72809, 51.39219 ],
[ 6.73002, 51.39436 ],
[ 6.72882, 51.39635 ],
[ 6.7261, 51.39975 ],
[ 6.72816, 51.40051 ],
[ 6.72689, 51.4028 ],
[ 6.73213, 51.40498 ],
[ 6.73547, 51.40581 ],
[ 6.73496, 51.40693 ],
[ 6.73376, 51.40803 ],
[ 6.73397, 51.40853 ],
[ 6.73363, 51.40914 ],
[ 6.73321, 51.40949 ],
[ 6.73279, 51.41028 ],
[ 6.73253, 51.41058 ],
[ 6.7325, 51.4109 ],
[ 6.7326, 51.41117 ],
[ 6.73062, 51.41305 ],
[ 6.72896, 51.41441 ],
[ 6.72981, 51.4148 ],
[ 6.73075, 51.41547 ],
[ 6.73161, 51.41621 ],
[ 6.73118, 51.41719 ],
[ 6.72981, 51.41764 ],
[ 6.72612, 51.42009 ],
[ 6.72534, 51.42132 ],
[ 6.71813, 51.42364 ],
[ 6.71622, 51.42444 ],
[ 6.71522, 51.42465 ],
[ 6.71178, 51.42784 ],
[ 6.71065, 51.42793 ],
[ 6.71, 51.4282 ],
[ 6.71015, 51.43087 ],
[ 6.70934, 51.43269 ],
[ 6.70977, 51.43358 ],
[ 6.70919, 51.43509 ],
[ 6.70799, 51.43505 ],
[ 6.70753, 51.43644 ],
[ 6.70766, 51.43822 ],
[ 6.70929, 51.43831 ],
[ 6.7094, 51.44072 ],
[ 6.71088, 51.44537 ],
[ 6.71333, 51.44838 ],
[ 6.71622, 51.45072 ],
[ 6.71816, 51.45186 ],
[ 6.71912, 51.45301 ],
[ 6.71953, 51.4538 ],
[ 6.71996, 51.4556 ],
[ 6.71906, 51.45546 ],
[ 6.71693, 51.45444 ],
[ 6.71485, 51.45547 ],
[ 6.7168, 51.45663 ],
[ 6.71622, 51.45657 ],
[ 6.71695, 51.4573 ],
[ 6.71779, 51.45722 ],
[ 6.71959, 51.45828 ],
[ 6.71923, 51.45828 ],
[ 6.71846, 51.45774 ],
[ 6.71749, 51.45742 ],
[ 6.71665, 51.45729 ],
[ 6.7159, 51.45685 ],
[ 6.71606, 51.45657 ],
[ 6.71555, 51.45602 ],
[ 6.71451, 51.45538 ],
[ 6.71391, 51.45527 ],
[ 6.71335, 51.45509 ],
[ 6.71228, 51.45556 ],
[ 6.71194, 51.4553 ],
[ 6.70878, 51.45654 ],
[ 6.70621, 51.45776 ],
[ 6.70601, 51.45766 ],
[ 6.70367, 51.45885 ],
[ 6.70348, 51.45886 ],
[ 6.70223, 51.45979 ],
[ 6.70172, 51.45984 ],
[ 6.70161, 51.45979 ],
[ 6.70086, 51.46025 ],
[ 6.70125, 51.46049 ],
[ 6.70147, 51.46079 ],
[ 6.70224, 51.46156 ],
[ 6.70242, 51.46156 ],
[ 6.70291, 51.46197 ],
[ 6.70363, 51.46232 ],
[ 6.70447, 51.46299 ],
[ 6.7038, 51.46475 ],
[ 6.70196, 51.46546 ],
[ 6.69702, 51.46591 ],
[ 6.69374, 51.46679 ],
[ 6.69028, 51.46886 ],
[ 6.68591, 51.47158 ],
[ 6.68282, 51.47321 ],
[ 6.67855, 51.47683 ],
[ 6.67788, 51.47859 ],
[ 6.67771, 51.48149 ],
[ 6.67921, 51.48494 ],
[ 6.68275, 51.48822 ],
[ 6.68221, 51.4896 ],
[ 6.68243, 51.49131 ],
[ 6.68249, 51.49298 ],
[ 6.68303, 51.49321 ],
[ 6.68326, 51.49345 ],
[ 6.68677, 51.49482 ],
[ 6.68872, 51.49459 ],
[ 6.69018, 51.49483 ],
[ 6.69865, 51.4972 ],
[ 6.69947, 51.49777 ],
[ 6.69962, 51.49865 ],
[ 6.70286, 51.50015 ],
[ 6.70816, 51.50387 ],
[ 6.70176, 51.50972 ],
[ 6.69399, 51.51666 ],
[ 6.69273, 51.5185 ],
[ 6.69043, 51.51964 ],
[ 6.68981, 51.52047 ],
[ 6.69065, 51.52114 ],
[ 6.69178, 51.52142 ],
[ 6.69258, 51.52153 ],
[ 6.69234, 51.52217 ],
[ 6.69037, 51.52434 ],
[ 6.68781, 51.52346 ],
[ 6.6858, 51.5253 ],
[ 6.68749, 51.52344 ],
[ 6.68867, 51.52203 ]
] } }
]
}