{
"type": "FeatureCollection",
"crs": { "type": "name", "properties": { "name": "urn:ogc:def:crs:OGC:1.3:CRS84" } },
"features": [
{ "type": "Feature",
"geometry": { "type": "LineString", "coordinates": [
[ 6.695223, 51.290215 ],
[ 6.691618, 51.290264 ],
[ 6.691103, 51.288441 ],
[ 6.691704, 51.284901 ],
[ 6.684837, 51.284035 ],
[ 6.675825, 51.270508 ],
[ 6.676941, 51.270077 ],
[ 6.675396, 51.268143 ],
[ 6.676855, 51.266319 ],
[ 6.672735, 51.265568 ],
[ 6.672564, 51.265194 ],
[ 6.670074, 51.265568 ],
[ 6.644669, 51.266804 ],
[ 6.633682, 51.267818 ],
[ 6.625872, 51.268143 ],
[ 6.622009, 51.268196 ],
[ 6.618662, 51.268898 ],
[ 6.608362, 51.267933 ],
[ 6.604929, 51.267338 ],
[ 6.602483, 51.266747 ],
[ 6.597033, 51.265945 ],
[ 6.592913, 51.266537 ],
[ 6.589608, 51.267181 ],
[ 6.583686, 51.266560 ],
[ 6.575232, 51.266239 ],
[ 6.569438, 51.265995 ],
[ 6.569052, 51.266132 ],
[ 6.565490, 51.268818 ],
[ 6.563430, 51.269054 ],
[ 6.562786, 51.269890 ],
[ 6.560555, 51.271339 ],
[ 6.560125, 51.272171 ],
[ 6.558194, 51.272736 ],
[ 6.557164, 51.272545 ],
[ 6.557293, 51.273888 ],
[ 6.554933, 51.273888 ],
[ 6.550298, 51.273407 ],
[ 6.545963, 51.273033 ],
[ 6.544590, 51.273167 ],
[ 6.539869, 51.273418 ],
[ 6.538496, 51.273418 ],
[ 6.538346, 51.271404 ],
[ 6.537101, 51.269501 ],
[ 6.535192, 51.267715 ],
[ 6.532874, 51.265434 ],
[ 6.529655, 51.262562 ],
[ 6.527295, 51.260654 ],
[ 6.523347, 51.258022 ],
[ 6.517017, 51.254383 ],
[ 6.510537, 51.250408 ],
[ 6.504679, 51.246845 ],
[ 6.500816, 51.244633 ],
[ 6.498563, 51.243530 ],
[ 6.494358, 51.241879 ],
[ 6.488307, 51.240009 ],
[ 6.486762, 51.239445 ],
[ 6.484401, 51.238598 ],
[ 6.484144, 51.238815 ],
[ 6.477921, 51.236301 ],
[ 6.477599, 51.236137 ],
[ 6.476612, 51.238220 ],
[ 6.474123, 51.239380 ],
[ 6.472063, 51.241161 ],
[ 6.472557, 51.241459 ],
[ 6.470153, 51.240532 ],
[ 6.457944, 51.248058 ],
[ 6.446013, 51.255070 ],
[ 6.437345, 51.260185 ],
[ 6.427689, 51.265579 ],
[ 6.424835, 51.267086 ],
[ 6.414642, 51.272511 ],
[ 6.411231, 51.274281 ],
[ 6.404514, 51.277611 ],
[ 6.395373, 51.282188 ],
[ 6.389108, 51.285408 ],
[ 6.386350, 51.287724 ],
[ 6.390953, 51.290497 ],
[ 6.390835, 51.290588 ],
[ 6.390406, 51.291626 ],
[ 6.388689, 51.294861 ],
[ 6.400856, 51.298458 ],
[ 6.411069, 51.301579 ],
[ 6.418923, 51.304073 ],
[ 6.430145, 51.307701 ],
[ 6.430693, 51.309235 ],
[ 6.433686, 51.308853 ],
[ 6.443878, 51.311905 ],
[ 6.455219, 51.315224 ],
[ 6.465282, 51.318184 ],
[ 6.468651, 51.319138 ],
[ 6.471913, 51.319496 ],
[ 6.469982, 51.321342 ],
[ 6.469467, 51.322338 ],
[ 6.472460, 51.323208 ],
[ 6.473340, 51.323200 ],
[ 6.475807, 51.323761 ],
[ 6.478168, 51.322327 ],
[ 6.477738, 51.322071 ],
[ 6.482277, 51.321106 ],
[ 6.482953, 51.321056 ],
[ 6.483350, 51.320965 ],
[ 6.483715, 51.320827 ],
[ 6.485817, 51.320194 ],
[ 6.489573, 51.320637 ],
[ 6.489701, 51.321213 ],
[ 6.490796, 51.321922 ],
[ 6.492019, 51.322659 ],
[ 6.493521, 51.323063 ],
[ 6.495838, 51.323826 ],
[ 6.498027, 51.325596 ],
[ 6.499014, 51.326828 ],
[ 6.501052, 51.327900 ],
[ 6.502383, 51.328720 ],
[ 6.510344, 51.330677 ],
[ 6.514249, 51.333157 ],
[ 6.518412, 51.335705 ],
[ 6.519871, 51.337433 ],
[ 6.520815, 51.340008 ],
[ 6.519892, 51.344631 ],
[ 6.519227, 51.345314 ],
[ 6.519120, 51.346615 ],
[ 6.519291, 51.347366 ],
[ 6.523755, 51.348240 ],
[ 6.525750, 51.349377 ],
[ 6.529205, 51.350330 ],
[ 6.533947, 51.354202 ],
[ 6.540363, 51.359684 ],
[ 6.542766, 51.360851 ],
[ 6.546242, 51.361450 ],
[ 6.549997, 51.361801 ],
[ 6.554418, 51.362427 ],
[ 6.566069, 51.367977 ],
[ 6.567121, 51.368217 ],
[ 6.571348, 51.369022 ],
[ 6.574845, 51.369717 ],
[ 6.574738, 51.369408 ],
[ 6.576176, 51.368393 ]
] } }
]
}